{
	"info": {
		"_postman_id": "2e793ada-1ce8-408d-a4ed-39f2ea99704f",
		"name": "New Collection",
		"schema": "https://schema.getpostman.com/json/collection/v2.1.0/collection.json"
	},
	"item": [
		{
			"name": "Login",
			"request": {
				"method": "POST",
				"header": [],
				"body": {
					"mode": "raw",
					"raw": "{\r\n\"email\": \"admin@admin.com\",\r\n\"password\": \"Admin@123\"\r\n}",
					"options": {
						"raw": {
							"language": "json"
						}
					}
				},
				"url": {
					"raw": "http://127.0.0.1:8000/api/login",
					"protocol": "http",
					"host": [
						"127",
						"0",
						"0",
						"1"
					],
					"port": "8000",
					"path": [
						"api",
						"login"
					]
				}
			},
			"response": []
		},
		{
			"name": "Create volunteer request",
			"request": {
				"auth": {
					"type": "bearer",
					"bearer": [
						{
							"key": "token",
							"value": "2|NHcGw7hYbLgDNemFQ56pg5Ahcu7HmanMnu7JV1jf",
							"type": "string"
						}
					]
				},
				"method": "POST",
				"header": [
					{
						"key": "Accept",
						"value": "application/json",
						"type": "default"
					},
					{
						"key": "Content-Type",
						"value": "application/json",
						"type": "default"
					}
				],
				"body": {
					"mode": "formdata",
					"formdata": [
						{
							"key": "name",
							"value": "Johny Doe",
							"type": "text"
						},
						{
							"key": "city",
							"value": "Boston",
							"type": "default"
						},
						{
							"key": "email",
							"value": "johnybegood@something.com",
							"type": "default"
						},
						{
							"key": "phone_number",
							"value": "123456789",
							"type": "default"
						},
						{
							"key": "volunteer_position_id",
							"value": "1",
							"type": "default"
						},
						{
							"key": "details",
							"value": "Details details",
							"type": "default"
						},
						{
							"key": "doc1",
							"type": "file",
							"src": "/C:/Users/SasoD/Desktop/Document 1.docx"
						},
						{
							"key": "",
							"value": "",
							"type": "text"
						}
					],
					"options": {
						"raw": {
							"language": "json"
						}
					}
				},
				"url": {
					"raw": "http://127.0.0.1:8000/api/volunteers",
					"protocol": "http",
					"host": [
						"127",
						"0",
						"0",
						"1"
					],
					"port": "8000",
					"path": [
						"api",
						"volunteers"
					]
				}
			},
			"response": []
		},
		{
			"name": "Statistics",
			"protocolProfileBehavior": {
				"disableBodyPruning": true
			},
			"request": {
				"auth": {
					"type": "bearer",
					"bearer": [
						{
							"key": "token",
							"value": "",
							"type": "string"
						}
					]
				},
				"method": "GET",
				"header": [
					{
						"key": "Accept",
						"value": "application/json",
						"type": "default"
					},
					{
						"key": "Content-Type",
						"value": "application/json",
						"type": "default"
					}
				],
				"body": {
					"mode": "raw",
					"raw": "\r\n",
					"options": {
						"raw": {
							"language": "json"
						}
					}
				},
				"url": {
					"raw": "http://127.0.0.1:8000/api/statistics",
					"protocol": "http",
					"host": [
						"127",
						"0",
						"0",
						"1"
					],
					"port": "8000",
					"path": [
						"api",
						"statistics"
					]
				}
			},
			"response": []
		},
		{
			"name": "Blogs",
			"request": {
				"auth": {
					"type": "bearer",
					"bearer": [
						{
							"key": "token",
							"value": "2|NHcGw7hYbLgDNemFQ56pg5Ahcu7HmanMnu7JV1jf",
							"type": "string"
						}
					]
				},
				"method": "GET",
				"header": [],
				"url": {
					"raw": "http://127.0.0.1:8000/api/blogs",
					"protocol": "http",
					"host": [
						"127",
						"0",
						"0",
						"1"
					],
					"port": "8000",
					"path": [
						"api",
						"blogs"
					]
				}
			},
			"response": []
		},
		{
			"name": "BlogCategories",
			"request": {
				"auth": {
					"type": "bearer",
					"bearer": [
						{
							"key": "token",
							"value": "2|NHcGw7hYbLgDNemFQ56pg5Ahcu7HmanMnu7JV1jf",
							"type": "string"
						}
					]
				},
				"method": "GET",
				"header": [],
				"url": {
					"raw": "http://127.0.0.1:8000/api/blogCategories",
					"protocol": "http",
					"host": [
						"127",
						"0",
						"0",
						"1"
					],
					"port": "8000",
					"path": [
						"api",
						"blogCategories"
					]
				}
			},
			"response": []
		},
		{
			"name": "Videos",
			"request": {
				"auth": {
					"type": "bearer",
					"bearer": [
						{
							"key": "token",
							"value": "2|NHcGw7hYbLgDNemFQ56pg5Ahcu7HmanMnu7JV1jf",
							"type": "string"
						}
					]
				},
				"method": "GET",
				"header": [],
				"url": {
					"raw": "http://127.0.0.1:8000/api/videos",
					"protocol": "http",
					"host": [
						"127",
						"0",
						"0",
						"1"
					],
					"port": "8000",
					"path": [
						"api",
						"videos"
					]
				}
			},
			"response": []
		},
		{
			"name": "Partners",
			"request": {
				"auth": {
					"type": "bearer",
					"bearer": [
						{
							"key": "token",
							"value": "2|NHcGw7hYbLgDNemFQ56pg5Ahcu7HmanMnu7JV1jf",
							"type": "string"
						}
					]
				},
				"method": "GET",
				"header": [],
				"url": {
					"raw": "http://127.0.0.1:8000/api/partners",
					"protocol": "http",
					"host": [
						"127",
						"0",
						"0",
						"1"
					],
					"port": "8000",
					"path": [
						"api",
						"partners"
					]
				}
			},
			"response": []
		},
		{
			"name": "Message",
			"request": {
				"auth": {
					"type": "bearer",
					"bearer": [
						{
							"key": "token",
							"value": "2|NHcGw7hYbLgDNemFQ56pg5Ahcu7HmanMnu7JV1jf",
							"type": "string"
						}
					]
				},
				"method": "POST",
				"header": [
					{
						"key": "Accept",
						"value": "application/json",
						"type": "default"
					},
					{
						"key": "Content-Type",
						"value": "application/json",
						"type": "default"
					}
				],
				"body": {
					"mode": "raw",
					"raw": "{\r\n\r\n\"first_name\": \"Jack\",\r\n\r\n\"last_name\": \"Black\",\r\n\r\n\"email\": \"johnyblack@something.com\",\r\n\r\n\"phone_number\": \"+111222333\",\r\n\r\n\"message\": \"This is an application from Jack\"\r\n\r\n\r\n}\r\n\r\n",
					"options": {
						"raw": {
							"language": "json"
						}
					}
				},
				"url": {
					"raw": "http://127.0.0.1:8000/api/contacts",
					"protocol": "http",
					"host": [
						"127",
						"0",
						"0",
						"1"
					],
					"port": "8000",
					"path": [
						"api",
						"contacts"
					]
				}
			},
			"response": []
		},
		{
			"name": "Make application",
			"request": {
				"auth": {
					"type": "bearer",
					"bearer": [
						{
							"key": "token",
							"value": "2|NHcGw7hYbLgDNemFQ56pg5Ahcu7HmanMnu7JV1jf",
							"type": "string"
						}
					]
				},
				"method": "POST",
				"header": [
					{
						"key": "Accept",
						"value": "application/json",
						"type": "default"
					},
					{
						"key": "Content-Type",
						"value": "application/json",
						"type": "default"
					}
				],
				"body": {
					"mode": "raw",
					"raw": "{\r\n\"first_name\": \"Johny\",\r\n\"last_name\": \"Something\",\r\n\"city\": \"Boston\",\r\n\"email\": \"johnybegood@something.com\",\r\n\"phone_number\": \"+888555222\",\r\n\"equipment_type_id\": \"2\",\r\n\"comment\": \"This is an application from Johny\"\r\n}\r\n"
				},
				"url": {
					"raw": "http://127.0.0.1:8000/api/applications",
					"protocol": "http",
					"host": [
						"127",
						"0",
						"0",
						"1"
					],
					"port": "8000",
					"path": [
						"api",
						"applications"
					]
				}
			},
			"response": []
		},
		{
			"name": "VolunteerPositions",
			"request": {
				"method": "GET",
				"header": [],
				"url": {
					"raw": "http://127.0.0.1:8000/api/volunteerPositions",
					"protocol": "http",
					"host": [
						"127",
						"0",
						"0",
						"1"
					],
					"port": "8000",
					"path": [
						"api",
						"volunteerPositions"
					]
				}
			},
			"response": []
		}
	]
}